<?xml version="1.0" encoding="UTF-8"?>
<svg width="436px" height="443px" viewBox="0 0 436 443" version="1.1" xmlns="http://www.w3.org/2000/svg" xmlns:xlink="http://www.w3.org/1999/xlink">
    <!-- Generator: Sketch 48.2 (47327) - http://www.bohemiancoding.com/sketch -->
    <title>Page 1</title>
    <desc>Created with Sketch.</desc>
    <defs>
        <polygon id="path-1" points="0 534 534 534 534 0 0 0"></polygon>
    </defs>
    <g id="MANIFESTO-" stroke="none" stroke-width="1" fill="none" fill-rule="evenodd" transform="translate(-179.000000, -1434.000000)">
        <g id="Page-1" transform="translate(124.000000, 1429.000000)">
            <g id="Group-18">
                <path d="M283.0623,67.5185 C282.6403,67.2905 282.2253,67.0535 281.8003,66.8305 C283.0903,67.3885 284.3733,67.9675 285.6473,68.5655 C284.7913,68.2065 283.9283,67.8605 283.0623,67.5185 M348.1943,120.4575 C345.1913,93.5695 320.3143,71.0845 291.4003,57.9935 C261.9543,44.6615 226.2083,38.0295 199.6003,51.6895 C185.9583,58.6935 178.4043,70.2165 173.5763,82.9195 C168.7563,95.5975 166.8833,109.4015 170.0493,123.4095 C175.4003,147.0785 199.7753,171.6115 230.4873,171.7275 C233.4903,171.7385 236.4173,171.5205 239.2503,171.0765 C256.8623,169.2445 273.0023,162.9455 291.2453,163.2215 C293.7503,163.2595 296.3673,163.3335 298.9933,163.3315 C306.0413,163.6635 312.7093,163.3105 319.1913,161.4715 C325.3633,159.7205 331.0323,156.6065 335.3773,152.7675 C344.8823,144.3735 349.5833,132.8935 348.1943,120.4575" id="Fill-2" fill="#EFEFEF"></path>
                <path d="M76.9705,369 C114.5595,377.899 163.5115,353.915 178.2445,316.915 L55.1845,316.915 L55.1845,358.564 C61.5285,363.542 68.8545,367.078 76.9705,369" id="Fill-4" fill="#9AE0F4"></path>
                <path d="M182.6483,410.2187 C195.5283,401.0747 211.1663,394.2297 227.1843,391.9257 L227.1843,316.9147 L188.6293,316.9147 C185.5863,325.6647 180.9503,333.7767 175.0033,341.1687 C148.5923,374.0017 92.6153,393.9547 55.1843,370.9407 L55.1843,439.7017 L156.7883,439.7017 C162.2563,427.9957 171.7213,417.9757 182.6483,410.2187" id="Fill-6" fill="#9AE0F4"></path>
                <path d="M189.7313,417.4473 C181.2983,423.1183 173.1803,430.7453 167.8503,439.7023 L227.1843,439.7023 L227.1843,401.8753 C213.7273,404.1483 200.5403,410.1773 189.7313,417.4473" id="Fill-8" fill="#9AE0F4"></path>
                <path d="M271.0145,14.1611 C261.4595,9.6341 250.1195,14.1551 247.2665,24.6411 C245.7955,30.0471 246.9115,35.9661 250.5665,40.2381 C253.3065,43.4421 257.6505,45.6061 261.8095,45.5131 C266.9775,46.1221 272.6015,44.1491 276.2335,39.7391 C283.0185,31.5011 280.9485,18.8691 271.0145,14.1611" id="Fill-10" fill="#FFC8FE"></path>
                <mask id="mask-2" fill="white">
                    <use xlink:href="#path-1"></use>
                </mask>
                <g id="Clip-13"></g>
                <polygon id="Fill-12" fill="#FFC8FE" mask="url(#mask-2)" points="258.459 387.258 482.517 387.258 482.517 372.702 258.459 372.702"></polygon>
                <polygon id="Fill-14" fill="#FFC8FE" mask="url(#mask-2)" points="246.638 416.925 470.696 416.925 470.696 402.369 246.638 402.369"></polygon>
                <polygon id="Fill-15" fill="#FFC8FE" mask="url(#mask-2)" points="266.638 447.332 490.696 447.332 490.696 432.775 266.638 432.775"></polygon>
                <path d="M225.2821,176.9756 C221.9211,174.0696 218.2511,171.6576 214.3861,169.5926 C212.6711,168.4526 210.9301,167.3426 209.1931,166.2376 C201.7281,161.4846 194.2981,155.8766 186.3831,151.7676 C186.3881,151.3606 186.3551,150.9556 186.3051,150.5546 C184.0871,149.9696 181.8431,149.5376 179.5771,149.3176 C174.2721,148.8036 169.0911,149.2136 164.0501,150.3226 C139.6441,162.6256 119.5111,182.7416 107.0801,207.2486 C99.7891,221.6236 95.1931,237.1096 93.6961,253.1646 C92.2511,268.6566 93.6461,286.3286 103.1201,299.2936 C113.6731,313.7366 131.8461,318.1456 148.7411,313.7586 C166.7591,309.0806 181.5131,295.3716 194.1181,282.3446 C207.1651,268.8626 219.6881,253.4476 228.2611,236.6786 C230.2841,232.7236 232.0361,228.5166 233.3781,224.1786 C233.5891,223.8806 233.8171,223.5946 234.0221,223.2926 C244.1811,208.2746 238.3071,188.2326 225.2821,176.9756" id="Fill-16" fill="#FE4F2D" mask="url(#mask-2)"></path>
                <path d="M387.1844,262.7021 C367.3234,299.3061 347.4614,335.9091 327.5994,372.5121 C290.4444,302.0611 253.2894,231.6111 216.1334,161.1611 C218.7384,162.5151 271.7104,189.0131 315.7934,160.0741 C334.8524,147.5621 344.0964,130.0411 348.1944,120.4581 C361.1914,167.8731 374.1874,215.2881 387.1844,262.7021" id="Fill-17" fill="#F8E71C" mask="url(#mask-2)"></path>
            </g>
            <g id="Group-31" transform="translate(119.000000, 5.000000)">
                <path d="M188.9637,217.0615 C186.4447,217.0615 186.4417,220.9755 188.9637,220.9755 C191.4827,220.9755 191.4857,217.0615 188.9637,217.0615" id="Fill-19" fill="#15182D"></path>
                <path d="M276.2908,379.7705 C253.7308,375.6625 231.1648,371.5905 208.5998,367.5115 L200.8628,366.1135 C198.8148,365.7435 194.1698,365.7795 192.6488,364.2645 C191.1998,362.8215 191.2458,358.1235 190.9598,356.1245 C190.5298,353.1245 190.1628,350.1165 189.8438,347.1035 C188.7238,336.5095 188.7648,325.8385 187.8798,315.2485 C194.5618,311.8245 201.1918,308.2975 207.7448,304.6285 C213.3108,301.5125 218.8348,298.3205 224.2928,295.0215 C228.1708,292.6785 231.6868,290.4415 232.1048,285.5445 C232.5628,280.1885 230.2858,274.1885 229.0198,269.0515 C227.4628,262.7335 225.9028,256.3515 225.8118,249.8085 C225.6728,239.9445 229.9018,228.5435 240.0718,225.2925 C243.1048,224.3235 242.5848,219.7825 239.3158,219.7075 C235.3508,219.6185 231.3848,219.5285 227.4178,219.4385 C225.5888,219.3965 223.7548,219.3885 221.9268,219.3135 C218.4968,219.1725 216.8938,218.1795 215.8068,214.7855 C213.9738,209.0625 213.6458,202.6355 212.1628,196.7755 C209.7878,187.3925 206.4398,178.0205 201.1368,169.8755 C201.6178,164.8155 200.4308,159.7555 196.7938,155.0745 C186.2858,141.5495 167.3398,143.3645 152.0348,149.7385 C144.0968,151.3655 136.4028,154.7965 129.7578,159.8675 C106.4148,177.6725 99.1548,208.0095 97.1028,235.8195 C94.5478,270.4185 94.5788,305.3515 93.4818,340.0255 C93.3248,344.9825 93.1898,349.9415 93.0208,354.8985 C92.9438,357.1575 93.0188,359.5735 91.2678,361.2935 C89.6618,362.8735 86.8888,363.5615 84.8148,364.3065 C75.8328,367.5365 66.7498,370.4955 57.5988,373.2085 C39.3058,378.6325 20.7158,383.0395 2.0328,386.8905 C-0.6662,387.4465 0.5278,391.3625 3.1538,390.9585 C19.8508,388.3935 36.3318,384.7625 52.6008,380.2175 C60.5678,377.9925 68.4808,375.5745 76.3328,372.9685 C82.1948,371.0225 89.7738,369.6295 94.6258,365.5645 C99.6528,361.3515 98.5598,353.8255 98.7568,347.9575 C99.0458,339.3645 99.3218,330.7715 99.6038,322.1785 L101.3218,269.6285 C101.4548,265.5925 101.5588,261.4975 101.6768,257.3725 C102.2618,258.0745 102.9648,258.6715 103.8388,259.0955 C109.2178,261.7075 113.6368,256.9975 116.5378,253.0775 C120.7298,247.4155 124.8108,241.6165 128.2338,235.4505 C132.1788,228.3445 135.7578,219.8425 136.6558,211.3485 C138.0258,211.0005 139.3288,210.6255 140.5718,210.2545 C152.1538,211.5905 164.6308,209.0445 173.9248,204.1605 C183.2068,199.2825 194.5808,188.9405 199.1758,177.6065 C204.0818,186.8115 206.7538,197.3335 208.7158,207.4055 C209.7618,212.7735 209.6588,220.6745 215.1028,223.7705 C217.8768,225.3485 221.6188,224.9885 224.6728,225.0585 L229.5188,225.1685 C226.0478,228.4475 223.5198,232.7165 221.9458,237.4605 C219.5488,244.6845 219.8648,252.1845 221.1248,259.5575 C218.0518,260.1715 215.0668,261.0715 211.8488,261.1765 C207.9068,261.3045 203.9048,260.1575 200.0188,260.6375 C199.4258,260.7105 198.9368,261.4505 199.4798,261.9385 C204.4468,266.3945 215.2298,266.3965 221.9188,263.6755 C222.2808,265.3835 222.6738,267.0815 223.0818,268.7615 C223.8118,271.7715 224.5878,274.7695 225.2698,277.7915 C226.2088,281.9635 227.3268,285.5295 223.6618,288.7245 C218.9348,292.8445 212.0008,295.6775 206.5318,298.7615 C194.8618,305.3405 182.9718,311.5135 170.9038,317.3325 C167.5908,318.9295 170.4868,323.8645 173.7908,322.2705 C177.4638,320.4985 181.1138,318.6805 184.7528,316.8405 C183.5538,327.4765 184.3058,338.4655 185.2798,349.0415 C185.7668,354.3115 185.5968,361.1435 187.4808,366.1405 C189.0058,370.1805 193.9138,370.0615 197.5528,370.7545 C223.2758,375.6585 248.9968,380.5745 274.7268,385.4435 C278.4338,386.1455 280.0088,380.4485 276.2908,379.7705" id="Fill-21" fill="#000333"></path>
                <path d="M97.1336,156.1611 C95.0466,152.0381 91.9076,148.2871 88.1286,145.5081 C86.4076,144.1161 84.5156,143.0001 82.5246,142.3541 C74.9156,139.4661 69.1936,143.9131 66.9216,151.1101 C66.0846,152.9381 65.4846,154.8431 65.1546,156.6431 C63.8476,163.7631 65.3606,170.7601 68.7126,177.1071 C71.6626,182.6921 76.8866,191.0231 83.8216,191.5031 C86.7896,191.7081 89.2336,190.6561 91.2056,188.9231 C102.6956,184.6911 101.6696,165.1221 97.1336,156.1611" id="Fill-23" fill="#4F4DDB"></path>
                <path d="M153.5174,0.5352 C152.1634,0.5962 151.0174,1.6342 151.0174,3.0352 L151.0174,3.7022 C151.0174,5.0102 152.1674,6.2632 153.5174,6.2022 C154.8714,6.1412 156.0174,5.1032 156.0174,3.7022 L156.0174,3.0352 C156.0174,1.7272 154.8684,0.4742 153.5174,0.5352" id="Fill-25" fill="#E85136"></path>
                <path d="M344.618,336.6064 C344.435,336.4874 344.238,336.3794 344.006,336.3004 C330.336,331.6264 321.926,351.8544 328.267,361.9714 C331.543,367.1984 337.968,368.7824 343.309,365.6924 C349.024,362.3864 351.331,355.3284 352.032,349.1274 C352.794,342.3864 349.255,338.0684 344.618,336.6064" id="Fill-27" fill="#FFFFFF"></path>
                <path d="M340.1844,329.2021 C336.9674,329.2021 336.9614,334.2021 340.1844,334.2021 C343.4014,334.2021 343.4074,329.2021 340.1844,329.2021" id="Fill-29" fill="#E85136"></path>
            </g>
        </g>
    </g>
</svg>